{
  "pack": {
    "pack_format": 9,
    "description": "Create Barebones"
  },
  "language": {
    "LANG_COUNTRY": {
      "name": "English",
      "region": "North America",
      "bidirectional": false
    }
  }
}